@startuml
/'
' The Client Credentials grant.
'
' Recommended when one owns the Client & Resource Server, the client is the
' Resource Owner (internal APIs).
'/

/'
' REF: https://tools.ietf.org/html/rfc6749#section-1.3.4
'
'  The client credentials (or other forms of client authentication) can be
'  used as an authorization grant when the authorization scope is limited to
'  the protected resources under the control of the client, or to protected
'  resources previously arranged with the authorization server.  Client
'  credentials are used as an authorization grant typically when the client is
'  acting on its own behalf (the client is also the resource owner) or is
'  requesting access to protected resources based on an authorization
'  previously arranged with the authorization server.
'/

title Client Credentials Grant

participant Client order 1
participant "Resource Server" order 3 #2edcc7
participant "Authorization Server" order 2 #9c9fbf

/' autonumber '/
skinparam responseMessageBelowArrow true
skinparam maxMessageSize 215

Client -> "Authorization Server": `access_token` request to "/token" + `client_secret + `state` (CSRF mitigation)
"Authorization Server" -> Client: `access_token` + `refresh_token` (optional) + `state` (CSRF mitigation)
Client -> "Resource Server": Resource request + `access_token`
"Resource Server" -> Client: Resource (response)
@enduml
